<svg id="mobile" xmlns="http://www.w3.org/2000/svg" xmlns:xlink="http://www.w3.org/1999/xlink" width="24" height="24" viewBox="0 0 24 24">
  <defs>
    <clipPath id="clip-path">
      <rect id="device_mobile_alt_Background_Mask_" data-name="device / mobile_alt (Background/Mask)" width="24" height="24" fill="none"/>
    </clipPath>
  </defs>
  <rect id="device_mobile_alt_Background_Mask_2" data-name="device / mobile_alt (Background/Mask)" width="24" height="24" fill="none"/>
  <g id="device_mobile_alt" data-name="device / mobile_alt" clip-path="url(#clip-path)">
    <path id="device_mobile_alt-2" data-name="device / mobile_alt" d="M12,22H2a2,2,0,0,1-2-2V2A2,2,0,0,1,2,0H12a2,2,0,0,1,2,2V20A2,2,0,0,1,12,22ZM2,2V20H12L12,2ZM7,19a1,1,0,1,1,1-1A1,1,0,0,1,7,19Z" transform="translate(4.75 1)" fill="#09343b"/>
  </g>
</svg>
